Aabel,P,E
Aabi,P,E
Aabo,P,E
Aada,T,E
Aadam,P,E
Aade,T,E
Aadi,P,E
Aado,P,E
Aadu,P,E
Aale,T,E
Aalike,T,E
Aalo,P,E
Aap,P,E
Aapo,P,E
Aare,U,E
Aarne,P,E
Aaro,P,E
Aasa,T,E
Aase,T,E
Aavo,P,E
Adam,P,R
Adeele,T,E
Adele,T,R
Adelheid,T,R
Ado,P,E
Adolf,P,R
Aet,T,E
Agaate,T,E
Age,T,E
Agi,T,E
Agne,T,E
Agnes,T,E
Agneta,T,E
Ago,P,E
Agu,P,E
Agur,P,E
Ahti,P,E
Ahto,P,E
Aigar,P,E
Aiki,T,E
Aila,T,E
Aile,T,E
Aili,T,E
Ailo,P,E
Aimar,P,E
Aime,T,E
Aimer,P,E
Aimi,T,E
Aimo,P,E
Aimur,P,E
Ain,P,E
Aina,T,E
Ainar,P,E
Aini,T,E
Ainike,T,E
Aino,T,E
Ainu,T,E
Ainus,U,E
Aira,T,E
Aire,T,E
Airi,T,E
Aita,T,E
Aivar,P,E
Aive,T,E
Aiver,P,E
Aivi,T,E
Aivo,P,E
Ako,P,E
Aksel,P,E
Alar,P,E
Alari,P,E
Albert,P,E
Albin,P,E
Albina,T,E
Alda,T,E
Aldi,P,E
Aldo,P,E
Aldur,P,E
Aleks,P,E
Aleksander,P,R
Aleksandra,T,R
Alev,P,E
Alf,P,R
Alfred,P,E
Algi,T,E
Algo,P,E
Alice,T,R
Aliida,T,E
Aliide,T,E
Aliise,T,E
Allan,P,E
Allar,P,E
Aller,P,E
Alli,T,E
Allo,U,E
Alma,T,E
Almar,P,E
Alme,T,E
Alo,P,E
Alvar,P,E
Alve,T,E
Alver,P,E
Alvi,T,E
Alviine,T,E
Alvin,P,E
Alvo,P,E
Amalie,T,R
Amanda,T,R
Ami,T,R
Amilde,T,E
Ande,T,E
Andi,P,E
Ando,P,E
Andra,T,E
Andre,P,R
Andreas,P,R
Andres,P,E
Andro,P,E
Andrus,P,E
Andu,P,E
Anete,T,E
Anett,T,E
Anette,T,E
Angela,T,R
Angelika,T,R
Anita,T,R
Ann,T,R
Anna,T,R
Anne,T,R
Anneli,T,E
Annes,P,E
Anni,T,E
Annika,T,R
Anno,P,E
Annus,P,E
Anti,P,E
Anto,P,E
Anton,P,R
Antonia,T,R
Ants,P,E
Antti,P,E
Antu,P,E
Anu,T,E
Aopelg,U,E
Aotõiv,U,E
Arbo,P,E
Ardi,P,E
Ardo,P,E
Ardu,P,E
Are,P,R
Argo,P,E
Arm,U,E
Arma,T,E
Armand,P,E
Armas,U,E
Armi,P,E
Armiida,T,E
Armin,P,R
Armo,P,E
Arne,P,E
Arno,P,E
Arnold,P,E
Arp,P,E
Arpo,P,E
Arro,P,E
Arti,P,E
Arto,P,E
Artur,P,R
Arved,P,E
Arvid,P,E
Arvo,P,E
Asko,P,E
Askur,P,E
Asmo,P,E
Asmus,P,E
Asse,P,E
Asso,P,E
Asta,T,E
Astra,T,E
Astrid,T,E
Ats,P,E
Atso,P,E
August,P,E
Aulemb,P,E
Auli,T,E
Aulis,P,E
Aune,T,E
Auni,T,E
Aurel,T,E
Aurelia,T,R
Auri,U,E
Auvo,P,E
Ave,T,E
Avo,P,E
Barba,T,E
Barbara,T,R
Benno,P,R
Berit,T,E
Bernhard,P,R
Bert,P,R
Berta,T,E
Bertha,T,R
Betti,T,E
Birgit,T,E
Birgitta,T,E
Bret,U,R
Brett,U,R
Britte,T,R
Bruno,P,R
Cecilia,T,R
Daaniel,P,E
Dagmar,T,E
Deboora,T,E
Diana,T,R
Dolores,T,R
Doora,T,E
Doris,T,R
Dorotea,T,R
Ebe,T,E
Eda,T,E
Ede,T,E
Edgar,P,E
Edi,U,E
Edith,T,R
Edmund,P,E
Eduard,P,E
Edvin,P,E
Eedi,P,E
Eedit,T,E
Eedo,P,E
Eedu,P,E
Eeri,P,E
Eerik,P,E
Eerika,T,E
Eero,P,E
Eesi,T,E
Eeva,T,E
Eevald,P,E
Eevart,P,E
Eevi,T,E
Eevo,P,E
Ege,T,E
Egert,P,E
Egil,P,E
Egle,T,E
Egon,P,E
Eha,T,E
Ehala,T,E
Eho,P,E
Eike,P,E
Eila,T,E
Eili,T,E
Eimar,P,E
Einar,P,E
Einari,P,E
Eino,P,E
Eke,P,E
Ekke,P,E
Elar,P,E
Eldur,P,E
Ele,T,E
Eleanor,T,R
Eleonoora,T,E
Elev,P,E
Elfi,T,E
Elfriida,T,E
Elfriide,T,E
Elga,T,E
Elias,P,R
Eliisabet,T,E
Eliise,T,E
Elina,T,E
Elis,T,E
Ella,T,E
Elle,T,E
Ellen,T,E
Elli,T,E
Ellinor,T,E
Ellu,T,E
Elma,T,E
Elmar,P,E
Elme,T,E
Elmer,P,E
Elmet,P,E
Elmi,T,E
Elmiire,T,E
Elmo,P,E
Elo,T,E
Els,T,E
Elsa,T,E
Else,T,E
Elve,T,E
Elvi,T,E
Elviira,T,E
Elvo,P,E
Emil,P,E
Emilie,T,R
Emma,T,R
Enda,T,E
Endel,P,E
Endla,T,E
Endo,P,E
Ene,T,E
Eneken,T,E
Enel,T,E
Eneli,T,E
Enelin,T,E
Enn,P,E
Enna,T,E
Enne,T,E
Enno,P,E
Ennu,P,E
Eno,P,E
Epp,T,E
Ere,T,E
Ergi,P,E
Ergo,P,E
Erich,P,R
Erik,P,E
Erika,T,E
Erki,P,E
Erko,P,E
Erla,T,E
Erland,P,E
Erlanda,T,E
Erle,T,E
Ermiine,T,E
Ermilde,T,E
Ermo,P,E
Erna,T,E
Erni,P,E
Ernits,P,E
Erno,P,E
Ernst,P,E
Ervi,P,E
Ervin,P,E
Ervo,P,E
Eskel,P,E
Esko,P,E
Esme,T,E
Esmi,T,E
Esmo,P,E
Esta,T,E
Este,T,E
Ester,T,E
Esti,T,E
Ethel,T,R
Eugen,P,R
Eugenia,T,R
Eva,T,R
Evald,P,E
Eve,T,E
Eveli,T,E
Evelin,T,E
Evert,P,E
Evi,T,E
Feliks,P,E
Fred,P,R
Fredi,P,E
Gea,T,R
Geit,U,E
Georg,P,R
Gerda,T,E
Gerhard,P,R
Gert,P,E
Gertrud,T,R
Gisella,T,R
Gita,T,R
Greta,T,E
Grete,T,R
Guido,P,E
Gunnar,P,E
Gustav,P,E
Hädi,T,E
Haide,T,E
Häidi,T,E
Haili,T,R
Häili,T,E
Haldi,T,E
Haldja,T,E
Haldo,P,E
Haldur,P,E
Häli,T,E
Halja,T,E
Haljand,P,E
Haljas,P,E
Hallar,P,E
Hälli,T,E
Halliki,T,E
Hämarik,T,E
Hando,P,E
Hanna,T,E
Hannes,P,E
Hanno,P,E
Hannus,P,E
Hans,P,R
Harald,P,E
Härda,T,E
Hardi,P,E
Hardo,P,E
Härm,T,E
Härmel,T,E
Härmi,T,E
Härmo,P,E
Harri,P,E
Harro,P,E
Harry,P,R
Hasso,P,E
Heameel,U,E
Heatõiv,U,E
Heda,T,E
Hedi,T,E
Hedvig,T,E
Heelia,T,E
Heero,P,E
Heidi,T,E
Heido,P,E
Heigo,P,E
Heik,P,E
Heiki,P,E
Heiko,P,E
Heili,T,E
Heilo,P,E
Heinar,P,E
Heino,P,E
Heiti,U,E
Heivi,T,E
Heivo,P,E
Hela,T,E
Helar,P,E
Helari,P,E
Helbe,T,E
Helda,T,E
Helde,T,E
Helde,T,E
Heldi,T,E
Heldur,P,E
Hele,T,E
Heleene,T,E
Helen,T,R
Helena,T,R
Helend,T,E
Helene,T,R
Helga,T,E
Helge,T,E
Helger,P,E
Helgi,T,E
Helgo,P,E
Heli,T,E
Helin,T,E
Helina,T,E
Helis,T,E
Helja,T,E
Helje,T,E
Heljo,P,E
Helju,P,E
Heljula,P,E
Hell,P,E
Hella,T,E
Hellar,P,E
Helle,T,E
Hellen,T,E
Helli,T,E
Helliki,T,E
Helma,T,E
Helmar,P,E
Helme,T,E
Helmeles,T,E
Helmen,U,E
Helmer,P,E
Helmi,T,E
Helmine,T,E
Helmo,P,E
Helmu,P,E
Helmur,P,E
Helmut,P,E
Helve,T,E
Helvi,T,E
Hendrik,P,E
Hendrika,T,E
Hengo,P,E
Henn,P,E
Henna,T,E
Henni,T,E
Henno,P,E
Henri,P,E
Henriette,T,E
Henrik,P,E
Henry,P,R
Herald,P,E
Herbert,P,R
Herbi,T,E
Herman,P,R
Hermann,P,E
Hermi,T,E
Hermo,P,E
Herta,T,E
Hiie,T,E
Hilda,T,E
Hildegard,T,E
Hilja,T,E
Hiljar,P,E
Hilje,T,E
Hiljo,P,E
Hilju,T,E
Hilla,T,E
Hillar,P,E
Hille,T,E
Hilli,T,E
Hilma,T,E
Hindrek,P,E
Hinge,T,E
Hingi,T,E
Hirvo,P,E
Holger,P,R
Hubert,P,R
Hugo,P,R
Huko,P,E
Hurma,T,E
Hurmas,P,E
Hurmi,U,E
Hüvalemb,U,E
Igapäiv,U,E
Ihaldu,U,E
Ihameel,U,E
Ihan,U,E
Ihanus,U,E
Iida,T,E
Iiris,T,E
Iivi,T,E
Iivo,P,E
Ike,P,E
Iko,P,E
Illar,P,E
Illart,P,E
Ille,T,E
Illi,T,E
Illimar,P,E
Illo,P,E
Ilm,U,E
Ilma,T,E
Ilmar,P,E
Ilmatar,T,E
Ilme,T,E
Ilmi,T,E
Ilmo,P,E
Ilo,U,E
Ilona,T,R
Ilse,T,E
Ilu,U,E
Imand,P,E
Imant,P,E
Imbi,T,E
Imma,T,E
Immo,P,E
Imre,P,R
Indrek,P,E
Ines,T,E
Inga,T,E
Inge,T,E
Ingeborg,T,R
Ingel,T,E
Inger,U,E
Ingi,T,E
Ingmar,P,R
Ingo,P,E
Ingrid,T,R
Ingvar,P,R
Inna,T,E
Innar,P,E
Inno,P,E
Ints,P,E
Ireene,T,E
Irene,T,R
Iris,T,E
Irja,T,E
Irje,T,E
Irma,T,E
Irmgard,T,R
Irmi,T,E
Ita,T,E
Iti,T,E
Ivalo,P,E
Ivar,P,R
Ivari,P,E
Ivi,T,E
Ivika,T,E
Ivo,P,E
Jaagup,P,E
Jaak,P,E
Jaako,P,E
Jaan,P,E
Jaana,T,E
Jaanika,T,E
Jaano,P,E
Jaanus,P,E
Jaap,P,E
Jako,P,E
Jakob,P,E
Jan,P,R
Jana,T,R
Janek,P,R
Janika,T,E
Janne,U,E
Janno,P,E
Jaolemb,U,E
Jasper,P,R
Jass,P,E
Jenny,T,R
Jete,T,E
Joakim,P,R
Joel,P,R
Johan,P,R
Johanna,T,R
Johannes,P,R
Jolanta,T,R
Joonas,P,E
Joonatan,P,E
Joosep,P,E
Joosua,P,E
Juhan,P,E
Juho,P,E
Jukk,P,E
Julia,T,R
Julius,P,R
Jürgen,P,E
Jürgo,P,E
Jüri,P,E
Jürjo,P,E
Jürnas,P,E
Juss,P,E
Juta,T,E
Jüts,P,E
Juudit,T,E
Juuli,T,E
Juulika,T,E
Kaarel,P,E
Kaari,T,E
Kaarin,T,E
Kaarli,P,E
Kaaro,P,E
Kadi,T,E
Kadri,T,E
Kadrin,T,E
Kahru,P,E
Kai,U,R
Kaia,T,E
Kaidi,T,E
Kaido,P,E
Kaidu,P,E
Kaie,T,E
Kaili,T,E
Kaimar,P,E
Kaimo,P,E
Kaira,T,E
Kaire,T,E
Kairi,T,E
Kairo,P,E
Kaisa,T,E
Kait,U,E
Kaivo,P,E
Kaja,T,E
Kajar,P,E
Kalev,P,E
Kaljo,P,E
Kalju,P,E
Kalle,P,R
Kalli,T,E
Kallis,U,E
Kalmer,P,E
Kalmo,P,E
Kalvi,P,E
Kanni,T,E
Kannike,T,E
Kardo,P,E
Karel,P,E
Karin,T,R
Karina,T,E
Karita,T,R
Karl,P,R
Karli,P,E
Karlotte,T,E
Karme,T,E
Karmen,T,R
Karmo,P,E
Karol,U,R
Karola,T,R
Karoliine,T,E
Karolin,T,R
Karro,P,E
Kärt,T,E
Kaspar,P,R
Kasper,P,R
Katariina,T,E
Kati,T,E
Katre,T,E
Katri,T,E
Katrin,T,E
Kaugmeel,U,E
Kaupo,P,E
Kaur,P,E
Kauri,P,E
Keit,U,R
Kelli,T,E
Kenno,P,E
Kerli,T,E
Kerman,P,E
Kermo,P,E
Kersti,T,E
Kerstin,T,R
Kert,U,E
Kertu,T,E
Kiira,T,E
Kiiri,T,E
Killu,T,E
Kimmo,P,R
Kindel,U,E
Kirg,U,E
Kirke,T,R
Kirsti,T,E
Klaara,T,E
Klaarika,T,E
Klaudia,T,R
Klaus,P,R
Kleement,P,E
Koidu,U,E
Koidula,T,E
Koit,U,E
Konrad,P,R
Konstantin,P,E
Kreet,T,E
Kreeta,T,E
Krista,T,R
Kristel,T,R
Krister,P,R
Kristi,T,R
Kristiina,T,E
Kristin,T,R
Kristina,T,R
Kristjan,P,E
Kristo,P,E
Krõõt,T,E
Kuido,P,E
Kuldar,P,E
Kulla,T,E
Kullar,P,E
Külli,T,E
Küllike,T,E
Külliki,T,E
Kullo,P,E
Küllo,P,E
Kulmo,P,E
Kulno,P,E
Külve,T,E
Külvi,T,E
Külvo,P,E
Kuma,U,E
Kunnar,P,E
Kuno,P,R
Kurmo,P,E
Kustas,P,E
Kustav,P,E
Kusti,P,E
Kusto,P,E
Kuulo,P,E
Kuuno,P,E
Laar,P,E
Laas,P,E
Lagle,T,E
Lahke,U,E
Laidi,T,E
Laila,T,E
Laili,T,E
Laima,T,R
Laina,T,E
Laine,T,E
Lainela,T,E
Laini,T,E
Laive,T,E
Laivi,T,E
Lättelemb,U,E
Laul,U,E
Laur,P,E
Laura,T,R
Lauri,P,E
Laurits,P,E
Lauro,P,E
Laus,P,E
Lea,T,E
Leana,T,R
Lee,U,R
Leegi,U,E
Leela,T,E
Leeli,T,E
Leelo,T,E
Leemet,P,E
Leemo,P,E
Leen,T,E
Leena,T,E
Leeni,T,E
Leevi,U,E
Lehar,P,E
Lehe,U,E
Leho,P,E
Lehta,T,E
Lehte,T,E
Lehti,T,E
Lehto,P,E
Leia,T,R
Leida,T,E
Leidi,T,E
Leido,P,E
Leidur,P,E
Leiger,P,E
Leila,T,E
Leili,T,E
Leina,T,E
Leine,T,E
Leini,T,E
Leino,P,E
Leivo,P,E
Lembe,T,E
Lembi,U,E
Lembit,P,E
Lembitu,P,E
Lembo,P,E
Lemme,T,E
Lemmert,P,E
Lemmi,T,E
Lemmik,U,E
Lemming,P,E
Lemmo,P,E
Lenna,T,E
Lennart,P,E
Lenno,P,E
Leo,P,R
Leonhard,P,R
Leonoora,T,E
Leonora,T,R
Leopold,P,R
Lepo,P,E
Leppetõiv,U,E
Lia,T,R
Liana,T,R
Liane,T,R
Lii,T,E
Liia,T,E
Liias,T,E
Liide,T,E
Liidi,T,E
Liidia,T,E
Liili,T,E
Liilia,T,E
Liina,T,E
Liine,T,E
Liis,T,E
Liisa,T,E
Liisi,T,E
Liisu,T,E
Liivar,P,E
Liivi,T,E
Liivia,T,E
Liivika,T,E
Liivo,P,E
Lilian,T,R
Lilja,T,E
Lille,T,E
Lilli,T,E
Linda,T,R
Linnar,P,E
Linnart,P,E
Loit,P,E
Loits,U,E
Loone,T,E
Loora,T,E
Loore,T,E
Lõõsk,U,E
Lõpp,U,E
Lota,T,R
Loviise,T,E
Lovise,T,R
Lucia,T,R
Ludvig,P,R
Lui,P,R
Luise,T,R
Lukas,P,R
Lulli,T,E
Lumi,T,E
Luukas,P,E
Luule,T,E
Luule,T,E
Luuli,T,E
Luulik,T,E
Ly,T,R
Lydia,T,R
Maaja,T,E
Maali,T,E
Maano,P,E
Maanus,P,E
Maara,T,E
Maare,T,E
Maari,T,E
Maarika,T,E
Maarius,P,E
Maarja,T,E
Maasika,T,E
Maasikas,T,E
Made,T,E
Madis,P,E
Madli,T,E
Magda,T,R
Magdaleena,T,E
Magdalena,T,R
Magnus,P,R
Mai,T,E
Maia,T,E
Maido,P,E
Mäido,P,E
Maidu,P,E
Maie,T,E
Maila,T,E
Maile,T,E
Maili,T,E
Mailis,T,E
Maime,T,E
Maimi,T,E
Maimo,T,E
Maimu,T,E
Maira,T,E
Maire,T,E
Mairi,T,E
Mairo,P,E
Mait,P,E
Maiu,T,E
Maive,T,E
Maivi,T,E
Malbe,U,E
Maldi,P,E
Malev,P,E
Mall,T,E
Malle,T,E
Malve,T,E
Malvi,T,E
Malviine,T,E
Malvine,T,R
Malvo,P,E
Mango,P,E
Manivald,P,E
Manivalde,P,E
Manni,T,E
Mardi,P,E
Mardo,P,E
Mare,T,E
Marek,P,R
Maret,T,E
Mareta,T,E
Margareeta,T,E
Margareta,T,R
Marge,T,E
Margit,T,E
Margo,U,R
Margot,U,R
Margus,P,E
Mari,T,E
Maria,T,R
Mariann,T,E
Marianna,T,R
Marianne,T,R
Marie,T,R
Mariina,T,E
Marika,T,E
Marili,T,E
Marina,T,R
Mario,P,R
Maris,T,E
Marit,T,R
Marita,T,R
Marja,T,E
Marje,T,E
Marjo,U,E
Marju,T,E
Mark,P,R
Marko,P,R
Markus,P,R
Marleen,T,E
Mart,P,E
Märt,P,E
Marta,T,R
Märten,P,E
Martin,P,R
Maru,U,E
Marve,T,E
Marvi,T,E
Marvo,P,E
Mati,P,E
Matilde,T,R
Matis,P,E
Mats,P,E
Matti,P,E
Mattias,P,R
Mattis,P,E
Mauno,P,E
Maur,P,E
Mauri,P,R
Maurits,P,R
Meel,U,E
Meeland,U,E
Meelepäev,U,E
Meeli,T,E
Meelik,P,E
Meelike,T,E
Meelis,P,E
Meeme,P,E
Meemo,P,E
Meeri,T,E
Meeta,T,E
Mehis,P,E
Mehto,P,E
Meida,T,E
Meila,T,E
Meili,T,E
Meinhard,P,R
Meino,P,E
Melani,T,E
Melanie,T,R
Melita,T,R
Meljo,P,E
Melli,T,E
Meralda,T,E
Meri,T,E
Merike,T,E
Merili,T,E
Merje,T,E
Merle,T,E
Merli,T,E
Mesike,T,E
Meta,T,E
Metta,T,E
Mihkel,P,E
Miia,T,E
Miida,T,E
Miikael,P,E
Miili,T,E
Miina,T,E
Mikk,P,E
Miko,P,E
Miku,P,E
Milda,T,E
Milde,T,E
Milja,T,E
Milla,T,E
Milli,T,E
Milve,T,E
Milvi,T,E
Minna,T,R
Miralda,T,R
Miranda,T,R
Mirja,T,E
Mirjam,T,R
Mirje,T,E
Mirle,T,E
Monika,T,E
Mooni,T,E
Moonika,T,E
Mõte,U,E
Murel,T,E
Naima,T,E
Naimi,T,E
Nanna,T,R
Natalie,T,R
Neeme,P,E
Neemo,P,E
Neida,T,E
Neidi,U,E
Nele,T,E
Nella,T,E
Nelli,T,E
Nigul,P,E
Nigulas,P,E
Niilas,P,E
Niilo,P,E
Niina,T,E
Niini,T,E
Nikolai,P,R
Nils,P,R
Noora,T,E
Nora,T,R
Nuut,P,E
Ohetõiv,U,E
Õie,T,E
Õigemeel,U,E
Õile,T,E
Õili,T,E
Õilme,T,E
Õis,T,E
Olaf,P,R
Olav,P,E
Olavi,P,E
Olev,P,E
Olga,T,R
Olger,P,E
Olinde,T,E
Oliver,P,R
Olivia,T,R
Olli,P,E
Olvi,U,E
Õnn,U,E
Õnne,T,E
Õnnela,T,E
Õnneleid,T,E
Öö,U,E
Õrne,T,E
Orvi,U,E
Oskar,P,R
Osmar,P,E
Oss,P,E
Osvald,P,R
Otelemb,U,E
Ott,P,E
Otto,P,R
Ove,P,R
Paap,P,E
Päärn,P,E
Pääro,P,E
Paavel,P,E
Paavo,P,E
Päev,U,E
Päevalemb,U,E
Päivi,T,E
Päivo,P,E
Pakane,U,E
Pärja,T,E
Pärje,T,E
Pärle,T,E
Pärn,P,E
Pärno,P,E
Pärt,P,E
Pärtel,P,E
Paul,P,R
Paula,T,R
Pauliine,T,E
Pauline,T,R
Pavel,P,R
Pearn,P,E
Pearu,P,E
Peedo,P,E
Peedu,P,E
Peep,P,E
Peet,P,E
Peeter,P,E
Pent,P,E
Piia,T,E
Piibe,T,E
Pikne,U,E
Pille,T,E
Pilve,T,E
Pilvi,T,E
Piret,T,E
Pireta,T,E
Pirja,T,E
Pirje,T,E
Põim,U,E
Preedik,P,E
Priidik,P,E
Priido,P,E
Priidu,P,E
Priit,P,E
Ragnar,P,R
Ragne,T,R
Rahe,U,E
Rahel,T,E
Rahuleid,U,E
Raid,P,E
Raido,P,E
Raidu,P,E
Raigo,P,E
Raik,P,E
Raiko,P,E
Raili,T,E
Raima,T,E
Raimo,P,E
Raimond,P,R
Raimu,P,E
Raimund,P,E
Rain,P,E
Raina,U,E
Raine,U,E
Rainer,P,E
Raini,P,E
Raino,P,E
Rait,P,E
Raivo,P,E
Raju,P,E
Ralf,P,R
Ramon,P,R
Randel,P,E
Rando,P,E
Randolf,P,R
Räni,P,E
Ranno,P,E
Rasmus,P,R
Raul,P,E
Rauno,P,E
Reeda,T,E
Reedik,P,E
Reeli,T,E
Reelika,T,E
Reena,T,E
Reene,T,E
Reeno,P,E
Reesi,T,E
Reet,T,E
Regiina,T,E
Regina,T,R
Rego,P,E
Reili,T,E
Reimo,P,E
Reimu,P,E
Rein,P,E
Reina,T,E
Reinhard,P,R
Reinhold,P,R
Reino,P,E
Reinu,P,E
Reio,P,E
Rena,T,R
Renate,T,R
Rene,U,R
Renee,U,R
Richard,P,R
Riho,P,E
Riin,T,E
Riina,T,E
Riine,T,E
Riivo,P,E
Riko,P,E
Rinaldo,P,R
Rista,T,E
Riste,T,E
Risto,P,E
Rita,T,R
Robert,P,R
Roberta,T,R
Robi,P,E
Roland,P,R
Rolf,P,R
Roman,P,R
Romet,P,R
Ronald,P,R
Roomet,P,E
Roosi,T,E
Rosalie,T,R
Rosina,T,E
Rudolf,P,R
Rünno,P,E
Ruta,T,E
Ruth,T,R
Rutt,T,E
Ruudi,P,E
Ruut,P,E
Ruuta,T,E
Saale,T,E
Saamo,P,E
Saamu,P,E
Saamuel,P,E
Saara,T,E
Sabiine,T,E
Sabine,T,R
Säde,T,E
Saida,T,E
Saima,T,E
Saime,T,E
Saimi,T,E
Sale,T,E
Salli,T,E
Salme,T,E
Salmi,T,E
Samuel,P,R
Sander,P,R
Sandra,T,R
Sanna,T,E
Sanne,T,E
Säsil,T,E
Sass,P,E
Selge,U,E
Selma,T,E
Senna,T,E
Senni,T,E
Senta,T,E
Sibülle,T,E
Signe,T,R
Sigrid,T,R
Siim,P,E
Siimo,P,E
Siimon,P,R
Siimu,P,E
Siina,T,E
Siiri,T,E
Siivi,T,E
Silja,T,E
Silje,T,E
Sille,T,E
Silva,T,E
Silvar,P,E
Silve,T,E
Silver,P,R
Silvester,P,R
Silvi,T,E
Silvia,T,R
Silvo,P,E
Simmo,P,E
Simmu,P,E
Simon,P,R
Simun,P,E
Sireli,T,E
Sirelin,T,E
Siret,T,E
Sirja,T,E
Sirje,T,E
Sirle,T,E
Sirli,T,E
Sofia,T,R
Solveig,T,R
Stella,T,R
Sten,P,R
Stiina,T,E
Sula,U,E
Sulev,P,E
Sulo,P,E
Sulvi,T,E
Susanna,T,R
Susi,U,E
Suusi,T,E
Suvi,T,E
Svea,T,R
Sven,P,R
Taali,T,E
Taaniel,P,E
Taano,P,E
Taave,P,E
Taavet,P,E
Taavi,P,E
Taavo,P,E
Tähte,T,E
Tähti,T,E
Tahvo,P,E
Taido,P,E
Taidur,P,E
Taima,T,E
Taimar,P,E
Taimi,T,E
Taimo,P,E
Taive,T,E
Taivi,T,E
Taivo,P,E
Tali,U,E
Talis,P,E
Talve,U,E
Talvi,T,E
Talvo,P,E
Tamaara,N,E
Tamara,N,R
Tambet,P,E
Tammo,P,E
Tamur,P,E
Tanel,P,E
Tani,P,E
Tanno,P,E
Tapper,P,E
Tarmo,P,E
Tarmu,P,E
Tarvi,P,E
Tarvo,P,E
Tasu,P,E
Tasuja,P,E
Tasulemb,P,E
Tauno,P,E
Tauri,P,E
Tavo,P,E
Tea,T,E
Teedo,P,E
Teedu,P,E
Teele,T,E
Teesi,T,E
Teet,P,E
Teetlev,P,E
Teho,P,E
Tehvan,P,E
Tehvo,P,E
Teisi,T,E
Tekla,T,R
Teo,P,R
Teodor,P,R
Teras,P,E
Tereese,T,E
Terese,T,R
Teri,T,E
Terje,T,E
Thea,T,R
Tiia,T,E
Tiido,P,E
Tiidrik,P,E
Tiidu,P,E
Tiina,T,E
Tiit,P,E
Tiiu,T,E
Tilde,T,E
Timmo,P,E
Timmu,P,E
Timo,P,R
Tõeleid,U,E
Tõiv,U,E
Toivo,P,E
Tõivotu,U,E
Tõivu,U,E
Tom,P,R
Tommi,P,E
Toni,U,R
Tõnis,P,E
Tõnn,P,E
Tõnno,P,E
Tõnu,P,E
Toom,P,E
Toomas,P,E
Tooni,T,E
Tormi,U,E
Tõsine,U,E
Triin,T,E
Triina,T,E
Triinu,T,E
Truude,T,E
Truuta,T,E
Tugev,U,E
Tuisk,U,E
Tulev,U,E
Tunne,U,E
Tuudor,P,E
Tuul,U,E
Tuule,T,E
Tuuli,T,E
Tuulike,T,E
Udo,P,R
Uhke,U,E
Uko,P,E
Uku,P,E
Ülar,P,E
Ülari,P,E
Ülev,P,E
Uljas,P,E
Uljo,P,E
Ulla,T,E
Ülla,T,E
Üllar,P,E
Üllart,P,E
Üllas,P,E
Ülle,T,E
Ulli,U,E
Ülli,T,E
Üllo,P,E
Ülo,P,E
Ulrik,P,R
Ulrika,T,R
Ulve,T,E
Ülve,T,E
Ulvi,T,E
Ülvi,T,E
Unipäiv,U,E
Uno,P,E
Urban,P,R
Urbe,T,E
Urbo,P,E
Ürjo,P,E
Urmas,P,E
Urmet,P,E
Urmi,U,E
Urmo,P,E
Ursula,T,R
Urva,T,E
Urve,T,E
Urvi,T,E
Ustav,P,E
Ustus,P,E
Uudo,P,E
Uuno,P,E
Vaarika,T,E
Vägi,P,E
Vagur,P,E
Vaho,P,E
Vahto,P,E
Vahur,P,E
Vaida,T,E
Vaido,P,E
Vaige,T,E
Vaigo,P,E
Vaike,T,E
Vaiki,T,E
Vaiko,P,E
Väiko,P,E
Vaino,P,E
Väino,P,E
Väinu,P,E
Valda,T,E
Valdek,P,E
Valdeko,P,E
Valdemar,P,E
Valdo,P,E
Valdur,P,E
Valentin,P,R
Valev,P,E
Valjo,P,E
Valju,P,E
Välk,P,E
Valle,U,E
Valli,T,E
Vallo,P,E
Valma,T,E
Valmar,P,E
Valmer,P,E
Valmi,T,E
Valmo,P,E
Valter,P,R
Valve,T,E
Valvo,P,E
Vambo,P,E
Vambola,P,E
Vanda,T,E
Vandemeel,P,E
Vane,P,E
Vanevald,P,E
Vanne,P,E
Vapper,P,E
Varje,T,E
Varjelemb,U,E
Varju,T,E
Varmo,P,E
Västrik,P,E
Veera,T,E
Veevo,P,E
Veigo,P,E
Veiko,P,E
Velda,T,E
Veli,P,E
Veljo,P,E
Vella,T,E
Velli,T,E
Vello,P,E
Velve,T,E
Velvo,P,E
Venda,T,E
Vendo,P,E
Venno,P,E
Vera,T,R
Verner,P,R
Verni,P,E
Veronika,T,R
Veroonika,T,E
Vesse,P,E
Vesta,P,E
Veste,N,E
Vidrik,P,E
Vihavald,P,E
Viia,T,E
Viido,P,E
Viilo,P,E
Viilup,P,E
Viire,T,E
Viise,U,E
Viit,T,E
Viiu,T,E
Viiva,T,E
Viive,T,E
Viivi,T,E
Viivia,T,E
Viivika,T,E
Viivo,U,E
Viktooria,T,E
Viktor,P,R
Viktoria,T,R
Vilbo,P,E
Vilimo,P,E
Vilja,T,E
Viljar,P,E
Vilje,T,E
Viljer,P,E
Viljo,P,E
Vilju,P,E
Ville,P,E
Villem,P,R
Villi,P,E
Villo,P,E
Villu,P,E
Vilma,T,R
Vilmar,P,E
Vilme,T,E
Vilmer,P,E
Vilmo,P,E
Vilve,T,E
Vilvi,T,E
Viola,T,R
Vioola,T,E
Virge,T,E
Virgi,T,E
Virgo,P,R
Virma,T,E
Virme,T,E
Virmo,P,E
Virve,T,E
Virvi,T,E
Virvo,P,E
Vivian,T,R
Vivika,T,E
Võitur,P,E
Volber,P,E
Voldemar,P,E
Volli,P,E
Volmer,P,E
Voog,P,E
Vootele,P,E
Võso,P,E